module codeberg.org/gardener/grc

go 1.18

require github.com/diamondburned/arikawa/v3 v3.0.0-rc.4

require (
	codeberg.org/gardener/arguments v0.0.0-20220326020618-d0409d683a5e // indirect
	github.com/gorilla/schema v1.2.0 // indirect
	github.com/gorilla/websocket v1.4.2 // indirect
	github.com/pkg/errors v0.9.1 // indirect
	golang.org/x/time v0.0.0-20210723032227-1f47c861a9ac // indirect
)
